{
  "project_info": {
    "project_number": "595809547376",
    "project_id": "dating-b52a5",
    "storage_bucket": "dating-b52a5.appspot.com"
  },
  "client": [
    {
      "client_info": {
        "mobilesdk_app_id": "1:595809547376:android:743145f4c0fa806289f0b5",
        "android_client_info": {
          "package_name": "com.biretik.xenos"
        }
      },
      "oauth_client": [
        {
          "client_id": "595809547376-2etamf9pmqjf71c4358s0pl2tglc1flr.apps.googleusercontent.com",
          "client_type": 3a
        }
      ],
      "api_key": [
        {
          "current_key": "AIzaSyAN5D5t9K7se_Vg6rQEy1gKJE6_9v11Xdc"
        }
      ],
      "services": {
        "appinvite_service": {
          "other_platform_oauth_client": [
            {
              "client_id": "595809547376-2etamf9pmqjf71c4358s0pl2tglc1flr.apps.googleusercontent.com",
              "client_type": 3
            }
          ]
        }
      }
    },
    {
      "client_info": {
        "mobilesdk_app_id": "1:595809547376:android:141ebd01dbeca67189f0b5",
        "android_client_info": {
          "package_name": "com.fesito.varetio"
        }
      },
      "oauth_client": [
        {
          "client_id": "595809547376-2etamf9pmqjf71c4358s0pl2tglc1flr.apps.googleusercontent.com",
          "client_type": 3
        }
      ],
      "api_key": [
        {
          "current_key": "AIzaSyAN5D5t9K7se_Vg6rQEy1gKJE6_9v11Xdc"
        }
      ],
      "services": {
        "appinvite_service": {
          "other_platform_oauth_client": [
            {
              "client_id": "595809547376-2etamf9pmqjf71c4358s0pl2tglc1flr.apps.googleusercontent.com",
              "client_type": 3
            }
          ]
        }
      }
    },
    {
      "client_info": {
        "mobilesdk_app_id": "1:595809547376:android:cffc8471a9c46e2889f0b5",
        "android_client_info": {
          "package_name": "com.likore.davidius"
        }
      },
      "oauth_client": [
        {
          "client_id": "595809547376-2etamf9pmqjf71c4358s0pl2tglc1flr.apps.googleusercontent.com",
          "client_type": 3
        }
      ],
      "api_key": [
        {
          "current_key": "AIzaSyAN5D5t9K7se_Vg6rQEy1gKJE6_9v11Xdc"
        }
      ],
      "services": {
        "appinvite_service": {
          "other_platform_oauth_client": [
            {
              "client_id": "595809547376-2etamf9pmqjf71c4358s0pl2tglc1flr.apps.googleusercontent.com",
              "client_type": 3
            }
          ]
        }
      }
    },
    {
      "client_info": {
        "mobilesdk_app_id": "1:595809547376:android:ee378df19d1b4d2289f0b5",
        "android_client_info": {
          "package_name": "com.preacher.dabelo"
        }
      },
      "oauth_client": [
        {
          "client_id": "595809547376-2etamf9pmqjf71c4358s0pl2tglc1flr.apps.googleusercontent.com",
          "client_type": 3
        }
      ],
      "api_key": [
        {
          "current_key": "AIzaSyAN5D5t9K7se_Vg6rQEy1gKJE6_9v11Xdc"
        }
      ],
      "services": {
        "appinvite_service": {
          "other_platform_oauth_client": [
            {
              "client_id": "595809547376-2etamf9pmqjf71c4358s0pl2tglc1flr.apps.googleusercontent.com",
              "client_type": 3
            }
          ]
        }
      }
    },
    {
      "client_info": {
        "mobilesdk_app_id": "1:595809547376:android:dd32693376f3e41189f0b5",
        "android_client_info": {
          "package_name": "com.sosous.maximus"
        }
      },
      "oauth_client": [
        {
          "client_id": "595809547376-2etamf9pmqjf71c4358s0pl2tglc1flr.apps.googleusercontent.com",
          "client_type": 3
        }
      ],
      "api_key": [
        {
          "current_key": "AIzaSyAN5D5t9K7se_Vg6rQEy1gKJE6_9v11Xdc"
        }
      ],
      "services": {
        "appinvite_service": {
          "other_platform_oauth_client": [
            {
              "client_id": "595809547376-2etamf9pmqjf71c4358s0pl2tglc1flr.apps.googleusercontent.com",
              "client_type": 3
            }
          ]
        }
      }
    },
    {
      "client_info": {
        "mobilesdk_app_id": "1:595809547376:android:49c63106287569ef89f0b5",
        "android_client_info": {
          "package_name": "com.techgiantsride.sylvia"
        }
      },
      "oauth_client": [
        {
          "client_id": "595809547376-2etamf9pmqjf71c4358s0pl2tglc1flr.apps.googleusercontent.com",
          "client_type": 3
        }
      ],
      "api_key": [
        {
          "current_key": "AIzaSyAN5D5t9K7se_Vg6rQEy1gKJE6_9v11Xdc"
        }
      ],
      "services": {
        "appinvite_service": {
          "other_platform_oauth_client": [
            {
              "client_id": "595809547376-2etamf9pmqjf71c4358s0pl2tglc1flr.apps.googleusercontent.com",
              "client_type": 3
            }
          ]
        }
      }
    }
  ],
  "configuration_version": "1"
}